…
- Finally, we update the interval column with the function tohours_3() shows the appropriate intervals in time format (hms).



```r
meanSteps_per_Interval <- meanSteps_perInterval %>% 
  mutate(interval = tohours_3(interval))
meanSteps_per_Interval
```

```
## # A tibble: 288 × 2
##    interval mean_steps_5min
##    <time>             <dbl>
##  1 00'00"              1.72
##  2 05'00"              0.34
##  3 10'00"              0.13
##  4 15'00"              0.15
##  5 20'00"              0.08
##  6 25'00"              2.09
##  7 30'00"              0.53
##  8 35'00"              0.87
##  9 40'00"              0   
## 10 45'00"              1.47
## # … with 278 more rows
```
…
